Version 0/Data/Initial 2d Scans/acq0001.csv

#Digilent WaveForms Oscilloscope Acquisition
#Device Name: Discovery2
#Serial Number: SN:210321A2E408
#Date Time: 2017-10-14 10:35:46.065
#Trigger:Source: Channel 2Type: EdgeCondition: RisingLevel: 0 VHyst.: AutoHoldOff: 0 s
#Channel 1: Range: 2 V/div Offset: -6.5 V
#Channel 2: Range: 200 mV/div Offset: 0 V

Time (s),Channel 1 (V),Channel 2 (V)
-0.020478333333333334,9.0658048219490919,-0.53089012390511403
-0.020473333333333333,8.3797241687781447,-0.53089012390511403
-0.020468333333333331,7.6462017683131265,-0.53189519324070866
-0.020463333333333333,6.9053806374958979,-0.53256523946443779
-0.020458333333333332,6.179156967384098,-0.53323528568816736
-0.020453333333333334,5.4894269490367105,-0.53390533191189682
-0.020448333333333332,4.8617361386888227,-0.53424035502376166
-0.020443333333333334,4.2924351711642537,-0.53524542435935551
-0.020438333333333333,3.796121507167991,-0.53591547058308542
-0.020433333333333331,3.3654964163477663,-0.53625049369495048
-0.020428333333333333,3.0078586290566904,-0.53692053991867972
-0.020423333333333332,2.7122600497648466,-0.53792560925427391
-0.020418333333333333,2.4787006784727161,-0.53759058614240929
-0.020413333333333332,2.3071805151799794,-0.53792560925427402
-0.020408333333333334,2.1867514643574193,-0.53792560925427402
-0.020403333333333332,2.1210628911814773,-0.53926570170173305
-0.020398333333333334,2.10281606529928,-0.53893067858986843
-0.020393333333333333,2.1283616215343599,-0.53993574792546262
-0.020388333333333331,2.2013489250632334,-0.54027077103732746
-0.020383333333333333,2.3108298803564207,-0.54060579414919208
-0.020378333333333332,2.4604538525905943,-0.54127584037292198
-0.020373333333333334,2.6465714765890112,-0.54194588659665122
-0.020368333333333332,2.8655333871754833,-0.5429509559322454
-0.020363333333333334,3.1136902191733729,-0.54328597904411013
-0.020358333333333332,3.3873926074065759,-0.54328597904411025
-0.020353333333333334,3.686640551874619,-0.54395602526783937
-0.020348333333333333,4.0114340525780223,-0.544961094603434
-0.020343333333333331,4.3508250139872144,-0.54462607149157005
-0.020338333333333333,4.7048134361018512,-0.54630118705089303
-0.020333333333333332,5.0806980492752949,-0.54630118705089303
-0.020328333333333334,5.4675307579780634,-0.54663621016275787
-0.020323333333333332,5.8580128318572724,-0.54630118705089303
-0.020318333333333334,6.2630923664420619,-0.54730625638648689
-0.020313333333333333,6.6754706313801027,-0.54764127949835217
-0.020308333333333334,7.0841995311413317,-0.54797630261021679
-0.020303333333333333,7.4892790657264907,-0.54864634883394647
-0.020298333333333331,7.8870598699587546,-0.5499864412814055
-0.020293333333333333,8.2665938483084673,-0.5499864412814055
-0.020288333333333332,8.6315303659525888,-0.5509915106169998
-0.020283333333333334,9.0037656139495912,-0.55166155684072926
-0.020278333333333332,9.3650527664172714,-0.5519965799525941
-0.020273333333333334,9.7226905537083468,-0.55233160306445872
-0.020268333333333333,10.062081515117541,-0.55266662617632356
-0.020263333333333331,10.3832256506445,-0.55400671862378259
-0.020258333333333333,10.675174864759665,-0.55400671862378259
-0.020253333333333332,10.886838044993315,-0.55501178795937689
-0.020248333333333333,11.018215191345137,-0.55501178795937689
-0.020243333333333332,11.080254399344637,-0.55501178795937689
-0.020238333333333334,11.094851860050403,-0.55601685729497119
-0.020233333333333332,11.098501225226844,-0.55635188040683592
-0.020228333333333334,11.094851860050404,-0.55702192663056516
-0.020223333333333333,11.091202494873961,-0.55735694974243022
-0.020218333333333331,11.087553129697518,-0.55769197285429539
-0.020213333333333333,11.083903764521079,-0.55836201907802452
-0.020208333333333332,11.083903764521075,-0.55903206530175442
-0.020203333333333334,11.076605034168196,-0.55970211152548355
-0.020198333333333332,11.076605034168196,-0.56037215774921312
-0.020193333333333334,11.069306303815317,-0.56037215774921312
-0.020188333333333332,11.069306303815313,-0.56171225019667215
-0.020183333333333334,11.062007573462434,-0.56171225019667215
-0.020178333333333333,11.058358208285991,-0.56372238886786075
-0.020173333333333331,11.058358208285991,-0.56238229642040261
-0.020168333333333333,11.058358208285991,-0.56439243509159032
-0.020163333333333332,11.054708843109548,-0.56405741197972548
-0.020158333333333334,11.054708843109548,-0.56439243509159032
-0.020153333333333332,11.051059477933109,-0.56405741197972548
-0.020148333333333334,11.047410112756667,-0.56506248131531933
-0.020143333333333333,11.047410112756666,-0.56539750442718462
-0.020138333333333334,11.051059477933107,-0.56640257376277836
-0.020133333333333333,11.047410112756666,-0.56606755065091408
-0.020128333333333331,11.043760747580226,-0.56707261998650893
-0.020123333333333333,11.043760747580226,-0.5684127124339674
-0.020118333333333332,11.040111382403785,-0.56807768932210267
-0.020113333333333334,11.043760747580226,-0.5694177817695617
-0.020108333333333332,11.040111382403785,-0.56908275865769697
-0.020103333333333334,11.043760747580224,-0.57042285110515545
-0.020098333333333333,11.043760747580226,-0.570422851105156
-0.020093333333333331,11.036462017227345,-0.57176294355261503
-0.020088333333333333,11.040111382403785,-0.57176294355261503
-0.020083333333333332,11.040111382403785,-0.57276801288820933
-0.020078333333333333,11.040111382403785,-0.57276801288820933
-0.020073333333333332,11.036462017227343,-0.57377308222380363
-0.020068333333333334,11.040111382403785,-0.5744431284475332
-0.020063333333333332,11.036462017227343,-0.57410810533566836
-0.020058333333333334,11.036462017227343,-0.57410810533566836
-0.020053333333333333,11.036462017227343,-0.57477815155939793
-0.020048333333333331,11.040111382403785,-0.57511317467126277
-0.020043333333333333,11.040111382403785,-0.5754481977831275
-0.020038333333333332,11.036462017227343,-0.57712331334245093
-0.020033333333333334,11.036462017227343,-0.5764532671187218
-0.020028333333333332,11.036462017227343,-0.57745833645431599
-0.020023333333333334,11.036462017227343,-0.57812838267804556
-0.020018333333333332,11.036462017227343,-0.57946847512550459
-0.020013333333333334,11.036462017227343,-0.57946847512550459
-0.020008333333333333,11.036462017227343,-0.58013852134923416
-0.020003333333333331,11.036462017227342,-0.57980349823736987
-0.019998333333333333,11.032812652050902,-0.58080856757296362
-0.019993333333333332,11.036462017227343,-0.58147861379669319
-0.019988333333333334,11.036462017227343,-0.58248368313228749
-0.019983333333333332,11.032812652050902,-0.58281870624415222
-0.019978333333333334,11.032812652050902,-0.58281870624415222
-0.019973333333333333,11.032812652050902,-0.58315372935601706
-0.019968333333333334,11.029163286874462,-0.58315372935601706
-0.019963333333333333,11.032812652050902,-0.58382377557974652
-0.019958333333333331,11.029163286874461,-0.58449382180347653
-0.019953333333333333,11.029163286874461,-0.58549889113907039
-0.019948333333333332,11.029163286874461,-0.58549889113907039
-0.019943333333333334,11.029163286874461,-0.58650396047466469
-0.019938333333333332,11.025513921698019,-0.58683898358652942
-0.019933333333333334,11.025513921698019,-0.58750902981025854
-0.019928333333333333,11.021864556521578,-0.58784405292212372
-0.019923333333333331,11.021864556521578,-0.58851409914585351
-0.019918333333333333,11.021864556521578,-0.58918414536958275
-0.019913333333333331,11.021864556521576,-0.59018921470517693
-0.019908333333333333,11.018215191345137,-0.58985419159331232
-0.019903333333333332,11.018215191345137,-0.59052423781704177
-0.019898333333333334,11.014565826168695,-0.59119428404077135
-0.019893333333333332,11.014565826168695,-0.59119428404077135
-0.019888333333333334,11.010916460992258,-0.59186433026450047
-0.019883333333333333,11.007267095815813,-0.59119428404077135
-0.019878333333333331,11.003617730639375,-0.59253437648823037
-0.019873333333333333,11.007267095815813,-0.59253437648823037
-0.019868333333333332,11.003617730639371,-0.5938744689356894
-0.019863333333333334,10.99996836546293,-0.5938744689356894
-0.019858333333333332,10.996319000286491,-0.59454451515941897
-0.019853333333333334,10.989020269933608,-0.5948795382712837
-0.019848333333333332,10.985370904757167,-0.595884607606878
-0.019843333333333334,10.978072174404288,-0.595884607606878
-0.019838333333333333,10.96712407887496,-0.5968896769424723
-0.019833333333333331,10.956175983345625,-0.59722470005433737
-0.019828333333333333,10.930630427110549,-0.5978947462780666
-0.019823333333333332,10.879539314640372,-0.5988998156136609
-0.019818333333333334,10.740863437935605,-0.5988998156136609
-0.019813333333333332,10.474459780055398,-0.60023990806111993
-0.019808333333333334,10.069380245470608,-0.59990488494925531
-0.019803333333333333,9.5402222948864495,-0.59956986183739036
-0.019798333333333334,8.9052327541859686,-0.6002399080611196
-0.019793333333333333,8.2045546403089666,-0.60124497739671423
-0.019788333333333331,7.46008414431462,-0.60124497739671467
-0.019783333333333333,6.7083149179680728,-0.60225004673230853
-0.019778333333333332,5.9820912478562729,-0.60292009295603799
-0.019773333333333334,5.299659959861768,-0.60359013917976756
-0.019768333333333332,4.6756185146903215,-0.60392516229163229
-0.019763333333333334,4.1172656426950711,-0.60426018540349691
-0.019758333333333333,3.6246013438752542,-0.60493023162722659
-0.019753333333333335,3.2122230789375856,-0.60526525473909121
-0.019748333333333333,2.8545852916461598,-0.60593530096282089
-0.019743333333333331,2.569934807883643,-0.60627032407468617
-0.019738333333333333,2.3436741669443908,-0.60761041652214465
-0.019733333333333332,2.1685046384752136,-0.60727539341027992
-0.019728333333333334,2.0517249528290948,-0.60794543963400949
-0.019723333333333332,1.9750882841238298,-0.60861548585773895
-0.019718333333333334,1.9458933627123134,-0.60828046274587433
-0.019713333333333333,1.9531920930651818,-0.60828046274587422
-0.019708333333333331,1.9969844751825117,-0.60962055519333336
-0.019703333333333333,2.0736211438877419,-0.60995557830519809
-0.019698333333333332,2.1794527340045948,-0.61096064764079216
-0.019693333333333334,2.3071805151799794,-0.61062562452892755
-0.019688333333333332,2.4604538525905095,-0.61129567075265712
-0.019683333333333334,2.639272746236129,-0.61163069386452185
-0.019678333333333332,2.839987830940395,-0.61297078631198088
-0.019673333333333334,3.0553003763503286,-0.6133058094238456
-0.019668333333333333,3.2815610172897811,-0.61364083253571045
-0.019663333333333331,3.5260684841114562,-0.61397585564757551
-0.019658333333333333,3.7778746812857849,-0.61464590187130475
-0.019653333333333332,4.0515770695190021,-0.61531594809503432
-0.019648333333333334,4.3289288229284075,-0.61565097120689904
-0.019643333333333332,4.6135793066908208,-0.61699106365435807
-0.019638333333333334,4.8945804252766658,-0.61665604054249346
-0.019633333333333332,5.1792309090392079,-0.61665604054249334
-0.019628333333333334,5.467530757977932,-0.61665604054249334
-0.019623333333333333,5.7375837810347123,-0.6173260867662228
-0.019618333333333331,6.0112861692679225,-0.61833115610181766
-0.019613333333333333,6.2740404619715697,-0.61967124854927613
-0.019608333333333332,6.5331453894988956,-0.61900120232554667
-0.019603333333333334,6.7849515866733388,-0.61967124854927613
-0.019598333333333332,7.0185109579655753,-0.6203412947730057
-0.019593333333333334,7.2447715989048271,-0.62067631788487032
-0.019588333333333333,7.4527854139620793,-0.62067631788487043
-0.019583333333333335,7.671747324548452,-0.62168138722046429
-0.019578333333333333,7.8980079654879063,-0.6223514334441943
-0.019573333333333331,8.124268606427373,-0.62235143344419486
-0.019568333333333333,8.3687760732488208,-0.62369152589165333
-0.019563333333333332,8.6132835400703822,-0.62402654900351806
-0.019558333333333334,8.8687391024212676,-0.62503161833911236
-0.019553333333333332,9.1132465692428273,-0.62503161833911236
-0.019548333333333334,9.3504553057113977,-0.62503161833911236
-0.019543333333333333,9.5657678511215369,-0.62503161833911236
-0.019538333333333331,9.7628335706494465,-0.62570166456284204
-0.019533333333333333,9.9453018294714219,-0.62603668767470666
-0.019528333333333332,10.105873897234904,-0.62670673389843656
-0.019523333333333334,10.255497869468925,-0.62737678012216569
-0.019518333333333332,10.390524380997249,-0.62737678012216569
-0.019513333333333334,10.518252162172692,-0.62871687256962472
-0.019508333333333332,10.638681212995252,-0.62905189568148956
-0.019503333333333334,10.740863437935559,-0.62972194190521869
-0.019498333333333333,10.828448202170193,-0.62972194190521902
-0.019493333333333331,10.890487410169715,-0.63072701124081332
-0.019488333333333333,10.937929157463429,-0.63072701124081332
-0.019483333333333332,10.970773444051408,-0.63139705746454289
-0.019478333333333334,10.985370904757167,-0.63139705746454289
-0.019473333333333332,10.996319000286491,-0.63273714991200192
-0.019468333333333334,10.999968365462928,-0.63307217302386654
-0.019463333333333332,10.996319000286491,-0.63273714991200192
-0.019458333333333334,10.996319000286491,-0.63307217302386654
-0.019453333333333333,10.992669635110047,-0.63374221924759622
-0.019448333333333331,10.992669635110046,-0.63441226547132579
-0.019443333333333333,10.989020269933608,-0.63474728858319052
-0.019438333333333332,10.985370904757167,-0.63608738103064955
-0.019433333333333334,10.985370904757167,-0.63541733480691998
-0.019428333333333332,10.981721539580725,-0.63675742725437912
-0.019423333333333334,10.978072174404286,-0.63675742725437912
-0.019418333333333333,10.974422809227843,-0.6377624965899733
-0.019413333333333335,10.970773444051403,-0.63809751970183803
-0.019408333333333333,10.96712407887496,-0.63943761214929717
-0.019403333333333331,10.963474713698517,-0.63910258903743289
-0.019398333333333333,10.959825348522077,-0.64010765837302674
-0.019393333333333332,10.956175983345638,-0.64044268148489147
-0.019388333333333334,10.948877252992755,-0.64144775082048577
-0.019383333333333332,10.945227887816312,-0.64144775082048577
-0.019378333333333334,10.941578522639874,-0.64178277393235039
-0.019373333333333333,10.937929157463429,-0.6417827739323505
-0.019368333333333331,10.930630427110545,-0.64211779704421534
-0.019363333333333333,10.923331696757666,-0.64245282015608007
-0.019358333333333332,10.916032966404778,-0.64278784326794525
-0.019353333333333333,10.905084870875459,-0.6437929126035391
-0.019348333333333332,10.890487410169694,-0.64345788949167437
-0.019343333333333334,10.864941853934607,-0.6447979819391334
-0.019338333333333332,10.824798836993754,-0.6447979819391334
-0.019333333333333334,10.770058359347161,-0.64613807438659188
-0.019328333333333333,10.686122960288987,-0.6458030512747277
-0.019323333333333331,10.587590100525018,-0.64647309749845749
-0.019318333333333333,10.463511684526074,-0.64714314372218673
-0.019313333333333332,10.313887712291896,-0.64781318994591652
-0.019308333333333334,10.1204713579406,-0.64848323616964576
-0.019303333333333332,9.9015094473541279,-0.64948830550524006
-0.019298333333333334,9.6606513457091197,-0.64948830550524006
-0.019293333333333332,9.4015464181816828,-0.64982332861710479
-0.019288333333333334,9.1278440299487169,-0.64948830550524017
-0.019283333333333333,8.839544181009737,-0.65015835172896963
-0.019278333333333331,8.5439456017178603,-0.65049337484083436
-0.019273333333333333,8.2337495617204972,-0.65049337484083436
-0.019268333333333332,7.9235535217229947,-0.65149844417642866
-0.019263333333333334,7.5987600210197277,-0.65116342106456382
-0.019258333333333332,7.2776158854929012,-0.65317355973575242
-0.019253333333333334,6.9601211151426607,-0.65350858284761715
-0.019248333333333333,6.6572238054978961,-0.65350858284761726
-0.019243333333333335,6.3725733217356115,-0.65417862907134638
-0.019238333333333333,6.1025202986788329,-0.65551872151880575
-0.019233333333333331,5.8397660059749503,-0.65518369840694146
-0.019228333333333333,5.5843104436241822,-0.65618876774253532
-0.019223333333333332,5.332504246449739,-0.65618876774253532
-0.019218333333333334,5.0733993189224131,-0.65719383707812962
-0.019213333333333332,4.8069956610422047,-0.65752886018999435
-0.019208333333333334,4.5442413683385574,-0.65786388330185896
-0.019203333333333333,4.2741883452817895,-0.65853392952558865
-0.019198333333333331,4.0077846874014584,-0.65886895263745338
-0.019193333333333333,3.7377316643449316,-0.65886895263745338
-0.019188333333333332,3.4676786412881628,-0.65886895263745382
-0.019183333333333333,3.2049243485845156,-0.65987402197304768
-0.019178333333333332,2.9458194210571902,-0.66020904508491252
-0.019173333333333334,2.6903638587063057,-0.66087909130864197
-0.019168333333333332,2.4385576615318625,-0.6612141144205067
-0.019163333333333334,2.1976995598868529,-0.66188416064423594
-0.019158333333333333,1.9677895537709471,-0.66255420686796584
-0.019153333333333331,1.7561263735372654,-0.6632242530916953
-0.019148333333333333,1.5554112888330911,-0.6632242530916953
-0.019143333333333332,1.3729430300109573,-0.66355927620356048
-0.019138333333333334,1.2123709622476175,-0.6642293224272896
-0.019133333333333332,1.0627469900135278,-0.66489936865101917
-0.019128333333333334,0.93501920883814404,-0.66523439176288379
-0.019123333333333332,0.82188888836840857,-0.66590443798661347
-0.019118333333333334,0.72700539378098006,-0.66690950732220733
-0.019113333333333333,0.64306999472278914,-0.66690950732220777
-0.019108333333333331,0.57738142154682059,-0.66690950732220766
-0.019103333333333333,0.51899157872378865,-0.66657448421034293
-0.019098333333333332,0.46790046625361104,-0.66757955354593723
-0.019093333333333334,0.43505617966564092,-0.66791457665780196
-0.019088333333333332,0.40221189307766991,-0.66891964599339626
-0.019083333333333334,0.38396506719547163,-0.66858462288153164
-0.019078333333333333,0.37301697166614023,-0.66958969221712583
-0.019073333333333334,0.3584195109603816,-0.67025973844085507
-0.019068333333333333,0.35841951096037494,-0.67092978466458486
-0.019063333333333331,0.35477014578393362,-0.67159983088831443
-0.019058333333333333,0.35477014578393362,-0.67159983088831443
-0.019053333333333332,0.36571824131325759,-0.67226987711204389
-0.019048333333333334,0.36936760648969891,-0.67293992333577346
-0.019043333333333332,0.38396506719546331,-0.67327494644763819
-0.019038333333333334,0.39856252790122193,-0.67360996955950292
-0.019033333333333333,0.41680935378343431,-0.67461503889509722
-0.019028333333333331,0.4314068144892112,-0.67428001578323249
-0.019023333333333333,0.45695237072428796,-0.67428001578323249
-0.019018333333333332,0.48614729213582758,-0.67394499267136854
-0.019013333333333333,0.50804348319446468,-0.67562010823069152
-0.019008333333333332,0.53723840460599437,-0.67562010823069152
-0.019003333333333334,0.57008269119396537,-0.67629015445442109
-0.018998333333333332,0.60657634295837681,-0.67696020067815066
-0.018993333333333334,0.64306999472277249,-0.67729522379001528
-0.018988333333333333,0.67956364648720147,-0.67830029312560969
-0.018983333333333331,0.7197066634280741,-0.67830029312561002
-0.018978333333333333,0.7634990455453492,-0.67897033934933915
-0.018973333333333332,0.8036420624862235,-0.67964038557306905
-0.018968333333333334,0.85108380977993825,-0.68031043179679829
-0.018963333333333332,0.89852555707367365,-0.67997540868493345
-0.018958333333333334,0.94961666954382717,-0.68064545490866268
-0.018953333333333332,1.0007077820140271,-0.68198554735612205
-0.018948333333333334,1.0517988944841814,-0.68265559357985128
-0.018943333333333333,1.1138381024837045,-0.68232057046798678
-0.018938333333333331,1.1685785801303492,-0.68232057046798666
-0.018933333333333333,1.2269684229533819,-0.68198554735612205
-0.018928333333333332,1.2817089006,-0.68332563980358108
-0.018923333333333334,1.3400987434230593,-0.68332563980358108
-0.018918333333333332,1.3984885862461187,-0.68399568602731065
-0.018913333333333334,1.4495796987162721,-0.68433070913917526
-0.018908333333333333,1.5006708111864722,-0.6846657322510401
-0.018903333333333334,1.5408138281273076,-0.68567080158663396
-0.018898333333333333,1.5809568450681795,-0.68600582469849924
